du@Avell:~/Documentos/rOpenMP/Serial$ ./compilaSerial.sh 
Operações com matrizes usando programa Serial.
		Lendo matriz 'A': 100 x 100;
		Time: 24-11-2019 14:03:31.398178;
		Time: 24-11-2019 14:03:31.398290;
		Tempo total da execução: 112 us.
		Lendo matriz 'B': 100 x 100;
		Time: 24-11-2019 14:03:31.398298;
		Time: 24-11-2019 14:03:31.398376;
		Tempo total da execução: 78 us.
		Lendo matriz 'C': 100 x 100;
		Time: 24-11-2019 14:03:31.398383;
		Time: 24-11-2019 14:03:31.398494;
		Tempo total da execução: 111 us.
		Iniciando cálculo das matrizes;
		Time: 24-11-2019 14:03:31.398500;
		Time: 24-11-2019 14:03:31.401880;
		Tempo total da execução: 3380 us.
		
Operações com matrizes usando programa Serial.
		Lendo matriz 'A': 100 x 100;
		Time: 24-11-2019 14:03:31.402525;
		Time: 24-11-2019 14:03:31.402619;
		Tempo total da execução: 94 us.
		Lendo matriz 'B': 100 x 100;
		Time: 24-11-2019 14:03:31.402627;
		Time: 24-11-2019 14:03:31.402739;
		Tempo total da execução: 112 us.
		Lendo matriz 'C': 100 x 100;
		Time: 24-11-2019 14:03:31.402745;
		Time: 24-11-2019 14:03:31.402855;
		Tempo total da execução: 110 us.
		Iniciando cálculo das matrizes;
		Time: 24-11-2019 14:03:31.402861;
		Time: 24-11-2019 14:03:31.406225;
		Tempo total da execução: 3364 us.
		
Operações com matrizes usando programa Serial.
		Lendo matriz 'A': 100 x 100;
		Time: 24-11-2019 14:03:31.406812;
		Time: 24-11-2019 14:03:31.406904;
		Tempo total da execução: 92 us.
		Lendo matriz 'B': 100 x 100;
		Time: 24-11-2019 14:03:31.406911;
		Time: 24-11-2019 14:03:31.407023;
		Tempo total da execução: 112 us.
		Lendo matriz 'C': 100 x 100;
		Time: 24-11-2019 14:03:31.407029;
		Time: 24-11-2019 14:03:31.407138;
		Tempo total da execução: 109 us.
		Iniciando cálculo das matrizes;
		Time: 24-11-2019 14:03:31.407144;
		Time: 24-11-2019 14:03:31.411139;
		Tempo total da execução: 3995 us.
		
Operações com matrizes usando programa Serial.
		Lendo matriz 'A': 100 x 100;
		Time: 24-11-2019 14:03:31.411819;
		Time: 24-11-2019 14:03:31.411911;
		Tempo total da execução: 92 us.
		Lendo matriz 'B': 100 x 100;
		Time: 24-11-2019 14:03:31.411918;
		Time: 24-11-2019 14:03:31.411991;
		Tempo total da execução: 73 us.
		Lendo matriz 'C': 100 x 100;
		Time: 24-11-2019 14:03:31.411998;
		Time: 24-11-2019 14:03:31.412054;
		Tempo total da execução: 56 us.
		Iniciando cálculo das matrizes;
		Time: 24-11-2019 14:03:31.412062;
		Time: 24-11-2019 14:03:31.415472;
		Tempo total da execução: 3410 us.
		
Operações com matrizes usando programa Serial.
		Lendo matriz 'A': 100 x 100;
		Time: 24-11-2019 14:03:31.416076;
		Time: 24-11-2019 14:03:31.416139;
		Tempo total da execução: 63 us.
		Lendo matriz 'B': 100 x 100;
		Time: 24-11-2019 14:03:31.416147;
		Time: 24-11-2019 14:03:31.416211;
		Tempo total da execução: 64 us.
		Lendo matriz 'C': 100 x 100;
		Time: 24-11-2019 14:03:31.416252;
		Time: 24-11-2019 14:03:31.416335;
		Tempo total da execução: 83 us.
		Iniciando cálculo das matrizes;
		Time: 24-11-2019 14:03:31.416343;
		Time: 24-11-2019 14:03:31.419562;
		Tempo total da execução: 3219 us.
		
Operações com matrizes usando programa Serial.
		Lendo matriz 'A': 1000 x 1000;
		Time: 24-11-2019 14:03:31.424402;
		Time: 24-11-2019 14:03:31.426874;
		Tempo total da execução: 2472 us.
		Lendo matriz 'B': 1000 x 1000;
		Time: 24-11-2019 14:03:31.426888;
		Time: 24-11-2019 14:03:31.429447;
		Tempo total da execução: 2559 us.
		Lendo matriz 'C': 1000 x 1000;
		Time: 24-11-2019 14:03:31.429459;
		Time: 24-11-2019 14:03:31.431614;
		Tempo total da execução: 2155 us.
		Iniciando cálculo das matrizes;
		Time: 24-11-2019 14:03:31.431625;
		Time: 24-11-2019 14:03:35.763697;
		Tempo total da execução: 4332072 us.
		
Operações com matrizes usando programa Serial.
		Lendo matriz 'A': 1000 x 1000;
		Time: 24-11-2019 14:03:35.769321;
		Time: 24-11-2019 14:03:35.771506;
		Tempo total da execução: 2185 us.
		Lendo matriz 'B': 1000 x 1000;
		Time: 24-11-2019 14:03:35.771517;
		Time: 24-11-2019 14:03:35.773722;
		Tempo total da execução: 2205 us.
		Lendo matriz 'C': 1000 x 1000;
		Time: 24-11-2019 14:03:35.773733;
		Time: 24-11-2019 14:03:35.776217;
		Tempo total da execução: 2484 us.
		Iniciando cálculo das matrizes;
		Time: 24-11-2019 14:03:35.776227;
		Time: 24-11-2019 14:03:40.44374;
		Tempo total da execução: 4268147 us.
		
Operações com matrizes usando programa Serial.
		Lendo matriz 'A': 1000 x 1000;
		Time: 24-11-2019 14:03:40.49992;
		Time: 24-11-2019 14:03:40.52184;
		Tempo total da execução: 2192 us.
		Lendo matriz 'B': 1000 x 1000;
		Time: 24-11-2019 14:03:40.52195;
		Time: 24-11-2019 14:03:40.54394;
		Tempo total da execução: 2199 us.
		Lendo matriz 'C': 1000 x 1000;
		Time: 24-11-2019 14:03:40.54404;
		Time: 24-11-2019 14:03:40.56890;
		Tempo total da execução: 2486 us.
		Iniciando cálculo das matrizes;
		Time: 24-11-2019 14:03:40.56901;
		Time: 24-11-2019 14:03:44.295571;
		Tempo total da execução: 4238670 us.
		
Operações com matrizes usando programa Serial.
		Lendo matriz 'A': 1000 x 1000;
		Time: 24-11-2019 14:03:44.301222;
		Time: 24-11-2019 14:03:44.303469;
		Tempo total da execução: 2247 us.
		Lendo matriz 'B': 1000 x 1000;
		Time: 24-11-2019 14:03:44.303479;
		Time: 24-11-2019 14:03:44.305720;
		Tempo total da execução: 2241 us.
		Lendo matriz 'C': 1000 x 1000;
		Time: 24-11-2019 14:03:44.305730;
		Time: 24-11-2019 14:03:44.308284;
		Tempo total da execução: 2554 us.
		Iniciando cálculo das matrizes;
		Time: 24-11-2019 14:03:44.308298;
		Time: 24-11-2019 14:03:48.584559;
		Tempo total da execução: 4276261 us.
		
Operações com matrizes usando programa Serial.
		Lendo matriz 'A': 1000 x 1000;
		Time: 24-11-2019 14:03:48.590220;
		Time: 24-11-2019 14:03:48.592481;
		Tempo total da execução: 2261 us.
		Lendo matriz 'B': 1000 x 1000;
		Time: 24-11-2019 14:03:48.592493;
		Time: 24-11-2019 14:03:48.594688;
		Tempo total da execução: 2195 us.
		Lendo matriz 'C': 1000 x 1000;
		Time: 24-11-2019 14:03:48.594698;
		Time: 24-11-2019 14:03:48.597261;
		Tempo total da execução: 2563 us.
		Iniciando cálculo das matrizes;
		Time: 24-11-2019 14:03:48.597273;
		Time: 24-11-2019 14:03:52.917706;
		Tempo total da execução: 4320433 us.
		
Operações com matrizes usando programa Serial.
		Lendo matriz 'A': 10000 x 10000;
		Time: 24-11-2019 14:03:53.333743;
		Time: 24-11-2019 14:03:54.12226;
		Tempo total da execução: 678483 us.
		Lendo matriz 'B': 10000 x 10000;
		Time: 24-11-2019 14:03:54.12247;
		Time: 24-11-2019 14:03:54.689438;
		Tempo total da execução: 677191 us.
		Lendo matriz 'C': 10000 x 10000;
		Time: 24-11-2019 14:03:54.689458;
		Time: 24-11-2019 14:03:55.479194;
		Tempo total da execução: 789736 us.
		Iniciando cálculo das matrizes;
		Time: 24-11-2019 14:03:55.479223;
		Time: 24-11-2019 16:21:28.914957;
		Tempo total da execução: 8253435734 us.
		
Operações com matrizes usando programa Serial.
		Lendo matriz 'A': 10000 x 10000;
		Time: 24-11-2019 16:21:29.363439;
		Time: 24-11-2019 16:21:29.470083;
		Tempo total da execução: 106644 us.
		Lendo matriz 'B': 10000 x 10000;
		Time: 24-11-2019 16:21:29.470104;
		Time: 24-11-2019 16:21:29.576689;
		Tempo total da execução: 106585 us.
		Lendo matriz 'C': 10000 x 10000;
		Time: 24-11-2019 16:21:29.576706;
		Time: 24-11-2019 16:21:29.682990;
		Tempo total da execução: 106284 us.
		Iniciando cálculo das matrizes;
		Time: 24-11-2019 16:21:29.683005;
		Time: 24-11-2019 18:30:21.131088;
		Tempo total da execução: 7731448083 us.
		
Operações com matrizes usando programa Serial.
		Lendo matriz 'A': 10000 x 10000;
		Time: 24-11-2019 18:30:21.567179;
		Time: 24-11-2019 18:30:21.667425;
		Tempo total da execução: 100246 us.
		Lendo matriz 'B': 10000 x 10000;
		Time: 24-11-2019 18:30:21.667442;
		Time: 24-11-2019 18:30:21.767689;
		Tempo total da execução: 100247 us.
		Lendo matriz 'C': 10000 x 10000;
		Time: 24-11-2019 18:30:21.767706;
		Time: 24-11-2019 18:30:21.868592;
		Tempo total da execução: 100886 us.
		Iniciando cálculo das matrizes;
		Time: 24-11-2019 18:30:21.868612;
		Time: 24-11-2019 20:39:34.356656;
		Tempo total da execução: 7752488044 us.
		
Operações com matrizes usando programa Serial.
		Lendo matriz 'A': 10000 x 10000;
		Time: 24-11-2019 20:39:34.797472;
		Time: 24-11-2019 20:39:34.898271;
		Tempo total da execução: 100799 us.
		Lendo matriz 'B': 10000 x 10000;
		Time: 24-11-2019 20:39:34.898290;
		Time: 24-11-2019 20:39:34.998652;
		Tempo total da execução: 100362 us.
		Lendo matriz 'C': 10000 x 10000;
		Time: 24-11-2019 20:39:34.998671;
		Time: 24-11-2019 20:39:35.99874;
		Tempo total da execução: 101203 us.
		Iniciando cálculo das matrizes;
		Time: 24-11-2019 20:39:35.99895;
		Time: 24-11-2019 22:49:46.261020;
		Tempo total da execução: 7811161125 us.

Operações com matrizes usando programa Serial.
		Lendo matriz 'A': 10000 x 10000;
		Time: 25-11-2019 09:49:33.848511;
		Time: 25-11-2019 09:49:33.955743;
		Tempo total da execução: 107232 us.
		Lendo matriz 'B': 10000 x 10000;
		Time: 25-11-2019 09:49:33.955763;
		Time: 25-11-2019 09:49:34.63137;
		Tempo total da execução: 107374 us.
		Lendo matriz 'C': 10000 x 10000;
		Time: 25-11-2019 09:49:34.63157;
		Time: 25-11-2019 09:49:34.170297;
		Tempo total da execução: 107140 us.
		Iniciando cálculo das matrizes;
		Time: 25-11-2019 09:49:34.170314;
		Time: 25-11-2019 11:47:17.942108;
		Tempo total da execução: 7063771794 us.


